<?xml version="1.0" encoding="UTF-8"?>
<svg width="24px" height="24px" viewBox="0 0 24 24" version="1.1" xmlns="http://www.w3.org/2000/svg" xmlns:xlink="http://www.w3.org/1999/xlink">
    <!-- Generator: Sketch 49.3 (51167) - http://www.bohemiancoding.com/sketch -->
    <title>icon / linkedin</title>
    <desc>Created with Sketch.</desc>
    <defs>
        <path d="M15.6078723,7.60377307 C18.884378,7.60377307 21.3340749,9.65710329 21.2194151,13.3776404 L21.2042007,21.3081167 C21.3926941,21.8234228 20.9786001,22.2838629 20.4578814,22.2486303 L16.7156773,22.2480777 C16.1787514,22.2838359 15.764612,21.8240347 15.9363357,21.3939987 L15.9404971,13.6837022 C15.832994,13.1018926 15.584613,12.8962122 14.9576986,12.8962122 C14.5628236,12.8962122 14.2961676,12.9801862 14.1591354,13.1256618 C14.0414984,13.2515674 13.9872492,13.5084375 14.0005746,13.5889296 L14.0017698,21.3939987 C14.0017698,21.8873833 13.5915003,22.2810147 13.1135478,22.2486303 L9.56376641,22.2480777 C9.03539575,22.2832661 8.61442776,21.8345729 8.76769239,21.4116093 L8.77815894,8.56872823 C8.61789481,8.03242586 9.04737805,7.57527517 9.54715371,7.66012709 L13.0651629,7.66485396 C13.3752457,7.60368417 13.6657398,7.73508157 13.8389405,7.97315244 C14.3604408,7.73260373 14.9353931,7.60377307 15.6078723,7.60377307 Z M19.5696594,13.3788144 C19.5696594,10.4260656 17.8369111,9.3588239 15.6090675,9.3588239 C14.9030104,9.3588239 14.516227,9.53480054 13.8741569,10.0304967 C13.8488675,10.0500358 13.8488675,10.0500358 13.8214896,10.0712037 L13.6556106,10.1968968 C13.3883745,10.4024822 13.0258732,10.4395179 12.7217454,10.2925741 C12.4160721,10.1448837 12.2226538,9.83701832 12.2253258,9.50212795 L12.2253258,9.35764986 L10.4353757,9.35764986 L10.4353757,20.5745883 L12.352014,20.5745883 L12.352014,13.8474373 C12.1380541,13.4152829 12.3052138,12.5199988 12.8574744,11.9323815 C13.3530896,11.4062665 14.0649289,11.1423355 14.9588938,11.1423355 C16.5609748,11.1423355 17.5872866,12.110952 17.5872866,13.6382777 L17.5872866,20.5745883 L19.5696594,20.5745883 L19.5696594,13.3788144 Z M5.4309804,1.75 C6.90904655,1.75 8.11196081,2.93164704 8.11196081,4.38800129 C8.11196081,5.84435554 6.90904655,7.02600258 5.4309804,7.02600258 C3.95291425,7.02600258 2.75,5.84435554 2.75,4.38800129 C2.75,2.93164704 3.95291425,1.75 5.4309804,1.75 Z M5.4309804,5.2721258 C5.92972919,5.2721258 6.33551682,4.87351239 6.33551682,4.38800129 C6.33551682,3.90249019 5.92972919,3.50387678 5.4309804,3.50387678 C4.93223161,3.50387678 4.52644399,3.90249019 4.52644399,4.38800129 C4.52644399,4.87351239 4.93223161,5.2721258 5.4309804,5.2721258 Z M8.0259084,8.47953742 L8.0259084,21.3939987 C8.0259084,21.8873833 7.61563891,22.2810147 7.13768641,22.2486303 L3.6070278,22.2480777 C3.08575596,22.2827933 2.66506471,21.8453003 2.79063586,21.4116093 L2.79770572,8.55618152 C2.67233665,8.04027205 3.06756458,7.60259903 3.5904151,7.60259903 L7.13768641,7.60259903 C7.62724954,7.60259903 8.0259084,7.9942097 8.0259084,8.47953742 Z M6.37615268,9.35764986 L4.4786371,9.35764986 L4.4786371,20.5745883 L6.37615268,20.5745883 L6.37615268,9.35764986 Z" id="path-1"></path>
    </defs>
    <g id="icon-/-linkedin" stroke="none" stroke-width="1" fill="none" fill-rule="evenodd">
        <mask id="mask-2" fill="white">
            <use xlink:href="#path-1"></use>
        </mask>
        <use id="Mask" fill="#000000" fill-rule="nonzero" xlink:href="#path-1"></use>
        <g id="color-/-Change-neadded-color-here" mask="url(#mask-2)" fill="#000000">
            <rect id="Shape" x="0" y="0" width="24" height="24"></rect>
        </g>
    </g>
</svg>