<?xml version="1.0" encoding="UTF-8"?>
<svg width="24px" height="24px" viewBox="0 0 24 24" version="1.1" xmlns="http://www.w3.org/2000/svg" xmlns:xlink="http://www.w3.org/1999/xlink">
    <!-- Generator: Sketch 49.3 (51167) - http://www.bohemiancoding.com/sketch -->
    <title>icon / sidebar</title>
    <desc>Created with Sketch.</desc>
    <defs>
        <path d="M19,2 L5,2 C3.3,2 2,3.3 2,5 L2,19 C2,20.7 3.3,22 5,22 L19,22 C20.7,22 22,20.7 22,19 L22,5 C22,3.3 20.7,2 19,2 Z M4,19 L4,5 C4,4.4 4.4,4 5,4 L8,4 L8,20 L5,20 C4.4,20 4,19.6 4,19 Z M20,19 C20,19.6 19.6,20 19,20 L10,20 L10,4 L19,4 C19.6,4 20,4.4 20,5 L20,19 Z" id="path-1"></path>
    </defs>
    <g id="icon-/-sidebar" stroke="none" stroke-width="1" fill="none" fill-rule="evenodd">
        <mask id="mask-2" fill="white">
            <use xlink:href="#path-1"></use>
        </mask>
        <use id="Mask" fill="#000000" fill-rule="nonzero" xlink:href="#path-1"></use>
        <g id="color-/-Change-neadded-color-here" mask="url(#mask-2)" fill="#000000">
            <rect id="Shape" x="0" y="0" width="24" height="24"></rect>
        </g>
    </g>
</svg>