<svg xmlns="http://www.w3.org/2000/svg" xmlns:xlink="http://www.w3.org/1999/xlink" width="24" height="24" viewBox="0 0 24 24">
    <defs>
        <path id="a" d="M20 7c0 .6-.4 1-1 1H1c-.6 0-1-.4-1-1s.4-1 1-1h18c.6 0 1 .4 1 1zM1 2h18c.6 0 1-.4 1-1s-.4-1-1-1H1C.4 0 0 .4 0 1s.4 1 1 1zm18 10H1c-.6 0-1 .4-1 1s.4 1 1 1h18c.6 0 1-.4 1-1s-.4-1-1-1z"/>
    </defs>
    <g fill="none" fill-rule="evenodd" transform="translate(2 5)">
        <mask id="b" fill="#fff">
            <use xlink:href="#a"/>
        </mask>
        <use fill="#000" fill-rule="nonzero" xlink:href="#a"/>
        <g fill="#000" mask="url(#b)">
            <path d="M-2-5h24v24H-2z"/>
        </g>
    </g>
</svg>
